# Blender MTL File: 'nibra_blade_ice.blend'
# Material Count: 1

newmtl Material
Ns 3.921569
Ka 1.000000 1.000000 1.000000
Kd 1.000000 1.000000 1.000000
Ks 0.202101 0.586854 1.000000
Ke 0.000000 0.000000 0.000000
Ni 2.000000
d 0.000000
illum 2
map_Kd C:\Users\JK\Desktop\ice.png
map_Bump C:\\Users\\JK\\Desktop\\ice_normal.png
